Out-of-memory and memory efficient Linear Model fitting with support for Inference • ploom
…
## # A tibble: 1 x 10
##   r.squared adj.r.squared sigma statistic  p.value logLik   AIC   BIC
##       <dbl>         <dbl> <dbl>     <dbl>    <dbl>  <dbl> <dbl> <dbl>
## 1     0.850         0.834  2.46      52.7 1.21e-11  -72.1  154.  161.
## # … with 2 more variables: deviance <dbl>, df.residual <dbl>

See the articles NA and NA for more on interfacing with databases.

Prediction & Residuals

Prediction with ploom models is performed with the predict() function. Because ploom models do not store any data while fitting, we must also provide data.

predict(y, new_data = mtcars, std_error = TRUE, interval = "prediction")

## # A tibble: 32 x 4
##    .pred .std_error .pred_lower .pred_upper
##    <dbl>      <dbl>       <dbl>       <dbl>
##  1  22.5      0.720       17.2         27.7
##  2  22.2      0.744       16.9         27.4
##  3  26.3      0.760       21.0         31.6
##  4  20.9      0.685       15.6         26.1
##  5  17.0      0.749       11.7         22.3
##  6  20.9      0.768       15.6         26.1
##  7  15.1      0.942        9.66        20.4
##  8  21.6      0.747       16.4         26.9
##  9  25.4      1.34        19.6         31.1
## 10  18.6      0.605       13.4         23.8
## # … with 22 more rows
…
